## Autogenerated by Scribe. DO NOT MODIFY.

name: Endpoints
description: ''
endpoints:
  -
    custom: []
    httpMethods:
      - GET
    uri: api/user
    metadata:
      custom: []
      groupName: Endpoints
      groupDescription: ''
      subgroup: ''
      subgroupDescription: ''
      title: ''
      description: ''
      authenticated: false
      deprecated: false
    headers:
      Content-Type: application/json
      Accept: application/json
    urlParameters: []
    cleanUrlParameters: []
    queryParameters: []
    cleanQueryParameters: []
    bodyParameters: []
    cleanBodyParameters: []
    fileParameters: []
    responses:
      -
        custom: []
        status: 401
        content: '{"message":"Unauthenticated."}'
        headers:
          cache-control: 'no-cache, private'
          content-type: application/json
          access-control-allow-origin: '*'
        description: null
    responseFields: []
    auth: []
    controller: null
    method: null
    route: null
  -
    custom: []
    httpMethods:
      - GET
    uri: api/companies
    metadata:
      custom: []
      groupName: Endpoints
      groupDescription: ''
      subgroup: ''
      subgroupDescription: ''
      title: 'Display a paginated list of companies.'
      description: ''
      authenticated: false
      deprecated: false
    headers:
      Content-Type: application/json
      Accept: application/json
    urlParameters: []
    cleanUrlParameters: []
    queryParameters: []
    cleanQueryParameters: []
    bodyParameters: []
    cleanBodyParameters: []
    fileParameters: []
    responses:
      -
        custom: []
        status: 200
        content: '{"current_page":1,"data":[{"id":2,"name":"Keebler, Kautzer and Jacobi","email":"beverly85@thiel.com","logo":"logos\/MQrzcw5dtgNOCcC5QqRfd9vvZU6PXOL7IktCU7Lq.jpg","website":"https:\/\/www.windler.info\/aut-qui-soluta-voluptatem-quos-tenetur","created_at":"2025-10-29T14:13:44.000000Z","updated_at":"2025-10-29T17:11:29.000000Z"},{"id":3,"name":"Rau-Strosin","email":"louvenia.harber@romaguera.com","logo":"logos\/lAUvWuANAStKBFliyfbtkc4e2fVsJhrdm0G8BbR7.jpg","website":"https:\/\/www.larkin.com\/optio-quidem-occaecati-libero-magni-eum-laborum","created_at":"2025-10-29T14:13:44.000000Z","updated_at":"2025-10-29T17:21:31.000000Z"},{"id":8,"name":"Dare, Davis and Langworth","email":"travis.schinner@goldner.com","logo":null,"website":"http:\/\/fay.com\/fuga-culpa-reiciendis-et-totam.html","created_at":"2025-10-29T14:13:44.000000Z","updated_at":"2025-10-29T14:13:44.000000Z"},{"id":9,"name":"Wilderman, Pouros and Bahringer","email":"rod89@dickens.com","logo":null,"website":"http:\/\/kutch.com\/sed-dolorem-qui-quos-dolorem-et-ea-dolore-doloribus","created_at":"2025-10-29T14:13:44.000000Z","updated_at":"2025-10-29T14:13:44.000000Z"},{"id":11,"name":"amazon","email":"amazon@gmail.com","logo":"logos\/xYhrutvGertrl8aHv2rrUMsRza4thY5TMHCCWOF4.jpg","website":"https:\/\/www.amazon.in\/","created_at":"2025-10-29T14:16:22.000000Z","updated_at":"2025-10-29T14:16:22.000000Z"},{"id":12,"name":"google","email":"google@ddd","logo":"logos\/dwFbTPxNOu6U8GM1ZeJFa8QzgKT7cmLqA8GkFMYa.png","website":"https:\/\/www.google.in\/","created_at":"2025-10-29T14:51:41.000000Z","updated_at":"2025-10-29T17:20:19.000000Z"},{"id":13,"name":"wwwwww","email":"ww@fff","logo":"logos\/XcLWHSgaBm68vBKCMucP9p57bQjZNNsM9l2zoXGC.jpg","website":"https:\/\/www.eeeee.in\/","created_at":"2025-10-29T17:41:27.000000Z","updated_at":"2025-10-29T17:41:27.000000Z"},{"id":14,"name":"microsoft","email":"micro@gmail.com","logo":"logos\/OM1w1cDycrMk5dShLU75mww6XBNpLdehIAGQio4u.jpg","website":"https:\/\/www.microsoft.in\/","created_at":"2025-10-29T17:42:24.000000Z","updated_at":"2025-10-29T17:42:24.000000Z"},{"id":15,"name":"philips","email":"philips@gmail.com","logo":null,"website":"https:\/\/www.philips.in\/","created_at":"2025-10-29T17:42:53.000000Z","updated_at":"2025-10-29T17:42:53.000000Z"},{"id":16,"name":"fastrack","email":"fastrack@gmail.com","logo":null,"website":"https:\/\/www.fastrack.in\/","created_at":"2025-10-29T17:43:20.000000Z","updated_at":"2025-10-29T17:43:20.000000Z"}],"first_page_url":"http:\/\/localhost\/api\/companies?page=1","from":1,"last_page":2,"last_page_url":"http:\/\/localhost\/api\/companies?page=2","links":[{"url":null,"label":"&laquo; Previous","active":false},{"url":"http:\/\/localhost\/api\/companies?page=1","label":"1","active":true},{"url":"http:\/\/localhost\/api\/companies?page=2","label":"2","active":false},{"url":"http:\/\/localhost\/api\/companies?page=2","label":"Next &raquo;","active":false}],"next_page_url":"http:\/\/localhost\/api\/companies?page=2","path":"http:\/\/localhost\/api\/companies","per_page":10,"prev_page_url":null,"to":10,"total":11}'
        headers:
          cache-control: 'no-cache, private'
          content-type: application/json
          x-ratelimit-limit: '60'
          x-ratelimit-remaining: '59'
          access-control-allow-origin: '*'
        description: null
    responseFields: []
    auth: []
    controller: null
    method: null
    route: null
  -
    custom: []
    httpMethods:
      - POST
    uri: api/companies
    metadata:
      custom: []
      groupName: Endpoints
      groupDescription: ''
      subgroup: ''
      subgroupDescription: ''
      title: 'Store a new company.'
      description: ''
      authenticated: false
      deprecated: false
    headers:
      Content-Type: multipart/form-data
      Accept: application/json
    urlParameters: []
    cleanUrlParameters: []
    queryParameters: []
    cleanQueryParameters: []
    bodyParameters:
      name:
        custom: []
        name: name
        description: 'Must not be greater than 255 characters.'
        required: true
        example: b
        type: string
        enumValues: []
        exampleWasSpecified: false
        nullable: false
        deprecated: false
      email:
        custom: []
        name: email
        description: 'Must be a valid email address.'
        required: false
        example: zbailey@example.net
        type: string
        enumValues: []
        exampleWasSpecified: false
        nullable: true
        deprecated: false
      website:
        custom: []
        name: website
        description: 'Must be a valid URL.'
        required: false
        example: 'https://www.gulgowski.com/nihil-accusantium-harum-mollitia-modi-deserunt'
        type: string
        enumValues: []
        exampleWasSpecified: false
        nullable: true
        deprecated: false
      logo:
        custom: []
        name: logo
        description: 'Must be an image.'
        required: false
        example: null
        type: file
        enumValues: []
        exampleWasSpecified: false
        nullable: true
        deprecated: false
    cleanBodyParameters:
      name: b
      email: zbailey@example.net
      website: 'https://www.gulgowski.com/nihil-accusantium-harum-mollitia-modi-deserunt'
    fileParameters:
      logo: null
    responses: []
    responseFields: []
    auth: []
    controller: null
    method: null
    route: null
  -
    custom: []
    httpMethods:
      - GET
    uri: 'api/companies/{id}'
    metadata:
      custom: []
      groupName: Endpoints
      groupDescription: ''
      subgroup: ''
      subgroupDescription: ''
      title: 'Show a single company.'
      description: ''
      authenticated: false
      deprecated: false
    headers:
      Content-Type: application/json
      Accept: application/json
    urlParameters:
      id:
        custom: []
        name: id
        description: 'The ID of the company.'
        required: true
        example: 2
        type: integer
        enumValues: []
        exampleWasSpecified: false
        nullable: false
        deprecated: false
    cleanUrlParameters:
      id: 2
    queryParameters: []
    cleanQueryParameters: []
    bodyParameters: []
    cleanBodyParameters: []
    fileParameters: []
    responses:
      -
        custom: []
        status: 200
        content: '{"id":2,"name":"Keebler, Kautzer and Jacobi","email":"beverly85@thiel.com","logo":"logos\/MQrzcw5dtgNOCcC5QqRfd9vvZU6PXOL7IktCU7Lq.jpg","website":"https:\/\/www.windler.info\/aut-qui-soluta-voluptatem-quos-tenetur","created_at":"2025-10-29T14:13:44.000000Z","updated_at":"2025-10-29T17:11:29.000000Z"}'
        headers:
          cache-control: 'no-cache, private'
          content-type: application/json
          x-ratelimit-limit: '60'
          x-ratelimit-remaining: '58'
          access-control-allow-origin: '*'
        description: null
    responseFields: []
    auth: []
    controller: null
    method: null
    route: null
  -
    custom: []
    httpMethods:
      - PUT
      - PATCH
    uri: 'api/companies/{id}'
    metadata:
      custom: []
      groupName: Endpoints
      groupDescription: ''
      subgroup: ''
      subgroupDescription: ''
      title: 'Update a company.'
      description: ''
      authenticated: false
      deprecated: false
    headers:
      Content-Type: application/json
      Accept: application/json
    urlParameters:
      id:
        custom: []
        name: id
        description: 'The ID of the company.'
        required: true
        example: 2
        type: integer
        enumValues: []
        exampleWasSpecified: false
        nullable: false
        deprecated: false
    cleanUrlParameters:
      id: 2
    queryParameters: []
    cleanQueryParameters: []
    bodyParameters: []
    cleanBodyParameters: []
    fileParameters: []
    responses: []
    responseFields: []
    auth: []
    controller: null
    method: null
    route: null
  -
    custom: []
    httpMethods:
      - DELETE
    uri: 'api/companies/{id}'
    metadata:
      custom: []
      groupName: Endpoints
      groupDescription: ''
      subgroup: ''
      subgroupDescription: ''
      title: 'Delete a company.'
      description: ''
      authenticated: false
      deprecated: false
    headers:
      Content-Type: application/json
      Accept: application/json
    urlParameters:
      id:
        custom: []
        name: id
        description: 'The ID of the company.'
        required: true
        example: 2
        type: integer
        enumValues: []
        exampleWasSpecified: false
        nullable: false
        deprecated: false
    cleanUrlParameters:
      id: 2
    queryParameters: []
    cleanQueryParameters: []
    bodyParameters: []
    cleanBodyParameters: []
    fileParameters: []
    responses: []
    responseFields: []
    auth: []
    controller: null
    method: null
    route: null
  -
    custom: []
    httpMethods:
      - GET
    uri: api/employees
    metadata:
      custom: []
      groupName: Endpoints
      groupDescription: ''
      subgroup: ''
      subgroupDescription: ''
      title: 'Display a listing of the resource.'
      description: ''
      authenticated: false
      deprecated: false
    headers:
      Content-Type: application/json
      Accept: application/json
    urlParameters: []
    cleanUrlParameters: []
    queryParameters: []
    cleanQueryParameters: []
    bodyParameters: []
    cleanBodyParameters: []
    fileParameters: []
    responses:
      -
        custom: []
        status: 200
        content: ''
        headers:
          content-type: 'text/html; charset=UTF-8'
          cache-control: 'no-cache, private'
          x-ratelimit-limit: '60'
          x-ratelimit-remaining: '57'
          access-control-allow-origin: '*'
        description: null
    responseFields: []
    auth: []
    controller: null
    method: null
    route: null
  -
    custom: []
    httpMethods:
      - POST
    uri: api/employees
    metadata:
      custom: []
      groupName: Endpoints
      groupDescription: ''
      subgroup: ''
      subgroupDescription: ''
      title: 'Store a newly created resource in storage.'
      description: ''
      authenticated: false
      deprecated: false
    headers:
      Content-Type: application/json
      Accept: application/json
    urlParameters: []
    cleanUrlParameters: []
    queryParameters: []
    cleanQueryParameters: []
    bodyParameters: []
    cleanBodyParameters: []
    fileParameters: []
    responses: []
    responseFields: []
    auth: []
    controller: null
    method: null
    route: null
  -
    custom: []
    httpMethods:
      - GET
    uri: 'api/employees/{id}'
    metadata:
      custom: []
      groupName: Endpoints
      groupDescription: ''
      subgroup: ''
      subgroupDescription: ''
      title: 'Display the specified resource.'
      description: ''
      authenticated: false
      deprecated: false
    headers:
      Content-Type: application/json
      Accept: application/json
    urlParameters:
      id:
        custom: []
        name: id
        description: 'The ID of the employee.'
        required: true
        example: architecto
        type: string
        enumValues: []
        exampleWasSpecified: false
        nullable: false
        deprecated: false
    cleanUrlParameters:
      id: architecto
    queryParameters: []
    cleanQueryParameters: []
    bodyParameters: []
    cleanBodyParameters: []
    fileParameters: []
    responses:
      -
        custom: []
        status: 200
        content: ''
        headers:
          content-type: 'text/html; charset=UTF-8'
          cache-control: 'no-cache, private'
          x-ratelimit-limit: '60'
          x-ratelimit-remaining: '56'
          access-control-allow-origin: '*'
        description: null
    responseFields: []
    auth: []
    controller: null
    method: null
    route: null
  -
    custom: []
    httpMethods:
      - PUT
      - PATCH
    uri: 'api/employees/{id}'
    metadata:
      custom: []
      groupName: Endpoints
      groupDescription: ''
      subgroup: ''
      subgroupDescription: ''
      title: 'Update the specified resource in storage.'
      description: ''
      authenticated: false
      deprecated: false
    headers:
      Content-Type: application/json
      Accept: application/json
    urlParameters:
      id:
        custom: []
        name: id
        description: 'The ID of the employee.'
        required: true
        example: architecto
        type: string
        enumValues: []
        exampleWasSpecified: false
        nullable: false
        deprecated: false
    cleanUrlParameters:
      id: architecto
    queryParameters: []
    cleanQueryParameters: []
    bodyParameters: []
    cleanBodyParameters: []
    fileParameters: []
    responses: []
    responseFields: []
    auth: []
    controller: null
    method: null
    route: null
  -
    custom: []
    httpMethods:
      - DELETE
    uri: 'api/employees/{id}'
    metadata:
      custom: []
      groupName: Endpoints
      groupDescription: ''
      subgroup: ''
      subgroupDescription: ''
      title: 'Remove the specified resource from storage.'
      description: ''
      authenticated: false
      deprecated: false
    headers:
      Content-Type: application/json
      Accept: application/json
    urlParameters:
      id:
        custom: []
        name: id
        description: 'The ID of the employee.'
        required: true
        example: architecto
        type: string
        enumValues: []
        exampleWasSpecified: false
        nullable: false
        deprecated: false
    cleanUrlParameters:
      id: architecto
    queryParameters: []
    cleanQueryParameters: []
    bodyParameters: []
    cleanBodyParameters: []
    fileParameters: []
    responses: []
    responseFields: []
    auth: []
    controller: null
    method: null
    route: null
